{
  "version": 111,
  "tenantid": "IND1308",
  "mobappid": 4960,
  "appName": "LBHC.EDU Mobile",
  "appDisplayName": "LBHC.EDU Mobile",
  "homeScreenTemplate": "<script>\r\n    MyCampusApp.rootScope.animatepage = function(currentstyle) {\r\n        $(\".app-body\").addClass(currentstyle);\r\n    }\r\n    var hideInterval = setInterval(function() {\r\n        var animatecss = $(\"#animatecss\");\r\n        if (!animatecss || animatecss.length <= 0) {\r\n            $.ajax({\r\n                url: \"https://raw.githubusercontent.com/daneden/animate.css/master/animate.css\",\r\n                dataType: \"text\",\r\n                success: function(data) {\r\n                    $(\"head\").append(\"<style id='animatecss'>\" + data + \"<\/style>\");\r\n                    clearInterval(hideInterval);\r\n                }\r\n            });\r\n        }\r\n    }, 2000);\r\n    if (!MyCampusApp.rootScope.cangelistadded) {\r\n        MyCampusApp.rootScope.$on(\"$routeChangeStart\", function(event, next, current) {\r\n            $(\".app-body\").attr(\"class\", \"app-body animated \");\r\n        });\r\n        MyCampusApp.rootScope.$on(\"$routeChangeSuccess\", function(event, next, current) {\r\n            currentstyle = \"bounceInRight\";\r\n            if (next.loadedTemplateUrl == \"partials/home.html\" && current.loadedTemplateUrl != \"partials/home.html\") {\r\n                currentstyle = \"bounceInLeft\";\r\n            } else if(current.loadedTemplateUrl != \"partials/home.html\") {\r\n                if (next.params.appid == current.params.appid && next.params.appid == next.params.pageid) {\r\n                    currentstyle = \"bounceInLeft\";\r\n                }\r\n              \tif (MyCampusApp.rootScope.ppage) {\r\n                \tif (MyCampusApp.rootScope.ppage.appid == next.params.appid && MyCampusApp.rootScope.ppage.pageid == next.params.pageid) {\r\n                    \tcurrentstyle = \"bounceInLeft\";\r\n                \t}\r\n                }\r\n            }\r\n            $(\".app-body\").addClass(currentstyle);\r\n            $(\".app-body\").addClass(\"animated\");\r\n            MyCampusApp.rootScope.cpage = next.params;\r\n            MyCampusApp.rootScope.ppage = current.params;\r\n        });\r\n        MyCampusApp.rootScope.cangelistadded = true;\r\n    }\r\n<\/script>\r\n<style>\r\n.navbar-app{background:none !important;border:0;}\r\n/*.sidebar, #mainSidebar{background:none !important;border:0;}*/\r\n.fa-user{display:none;}\r\n.navbar .navbar-brand{display:none;}\r\n.navbar-absolute-top .fa-bars, .navbar-absolute-top .fa-user{color:#fff;}\r\n#dock{background:#000 !important;bottom:0 !important;}\r\n.dockicon{margin-top:12px !important;margin-right:8% !important;}\r\n.sidebar-scrollable{min-height: 100% !important}\r\n.list-group{margin-bottom:0 !important;}\r\n#appContent{height:100% !important;background:#fff !important;}\r\n<\/style>",
  "middlewareServerUrl": null,
  "feedbackEmail": null,
  "backgroundurl": "IND1308/background.png",
  "brandingurl": "IND1308/branding.png",
  "customStyle": "#branding {\r\n  position: absolute !important;\r\n  top: 62px !important;\r\n  width: 70% !important;\r\n  margin: auto;\r\n  bottom: auto !important;\r\n}\r\n\r\nbody {\r\n  position: absolute;\r\n  width: 100%;\r\n  height: 100%;\r\n  background-size: 100% 100% !important;\r\n}\r\n\r\n.icon {\r\n  width: 56px !important;\r\n  height: 56px !important;\r\n}\r\n\r\n#homedata .campuseai-Info {\r\n  width: 56px !important;\r\n  height: 33px !important;\r\n}\r\n\r\n.dockicon:after {\r\n  bottom: 0px !important;\r\n}\r\n\r\n.dockicon {\r\n  margin-bottom: 25px !important;\r\n}\r\n\r\n.blockUI i {\r\n  color: white !important;\r\n}\r\n\r\n.promptumenu_nav a.active {\r\n  background: #fff;\r\n  border-radius: 50%;\r\n  width: 10px;\r\n  height: 10px;\r\n}\r\n\r\n.promptumenu_nav a {\r\n  background: #ad1a1a;\r\n  border-radius: 50%;\r\n  width: 10px;\r\n  height: 10px;\r\n}\r\n\r\n.promptumenu_window {\r\n  overflow: visible !important;\r\n  bottom: 30px;\r\n}\r\n\r\n.promptumenu_nav {\r\n  margin-bottom: -175px;\r\n}\r\n\r\n.app-body {\r\n  padding-bottom: 0px !important;\r\n}\r\n\r\n.app {\r\n  background-size: 100% 100% !important;\r\n}\r\n\r\n.navbar-app,\r\n.sidebar,\r\n#mainSidebar {\r\n  background: rgb(168, 12, 12) !important;\r\n  /* Old browsers */\r\n  background: -moz-linear-gradient(top, rgba(168, 12, 12, 1) 0%, rgba(0, 0, 0, 1) 100%) !important;\r\n  /* FF3.6+ */\r\n  background: -webkit-gradient(linear, left top, left bottom, color-stop(0%, rgba(168, 12, 12, 1)), color-stop(100%, rgba(0, 0, 0, 1))) !important;\r\n  /* Chrome,Safari4+ */\r\n  background: -webkit-linear-gradient(top, rgba(168, 12, 12, 1) 0%, rgba(0, 0, 0, 1) 100%) !important;\r\n  /* Chrome10+,Safari5.1+ */\r\n  background: -o-linear-gradient(top, rgba(168, 12, 12, 1) 0%, rgba(0, 0, 0, 1) 100%) !important;\r\n  /* Opera 11.10+ */\r\n  background: -ms-linear-gradient(top, rgba(168, 12, 12, 1) 0%, rgba(0, 0, 0, 1) 100%) !important;\r\n  /* IE10+ */\r\n  background: linear-gradient(to bottom, rgba(168, 12, 12, 1) 0%, rgba(0, 0, 0, 1) 100%) !important;\r\n  /* W3C */\r\n  filter: progid: DXImageTransform.Microsoft.gradient( startColorstr='#a80c0c', endColorstr='#000000', GradientType=0) !important;\r\n  /* IE6-9 */\r\n}\r\n\r\n.blockUI {\r\n  margin: auto !important;\r\n  left: 0px !important;\r\n  right: 0px !important;\r\n  width: auto !important;\r\n}\r\n\r\n#homedata .campuseai-Info {\r\n  width: 76px !important;\r\n  margin-left: -10px;\r\n}\r\n\r\n@media (min-width: 320px) and (max-width: 480px) {\r\n  .icon {\r\n    width: 56px !important;\r\n    height: 56px !important;\r\n  }\r\n  #homedata .campuseai-Info {\r\n    width: 76px !important;\r\n    margin-left: -10px;\r\n  }\r\n}\r\n\r\n@media (min-width: 320px) and (max-width: 568px) {\r\n  .icon {\r\n    width: 75px !important;\r\n    height: 75px !important;\r\n  }\r\n  #homedata .campuseai-Info {\r\n    width: 96px !important;\r\n    font-size: 12px;\r\n    margin-top: 2px;\r\n    margin-left: -10px;\r\n    margin-right: -10px;\r\n    line-height: 12px;\r\n    /*margin-left:-10px;*/\r\n  }\r\n}\r\n\r\n@media (min-width: 768px) {\r\n  #branding {\r\n    width: 50% !important;\r\n    margin: auto;\r\n  }\r\n  .icon {\r\n    width: 102px !important;\r\n    height: 102px !important;\r\n  }\r\n  #homedata .campuseai-Info {\r\n    width: 120px !important;\r\n    margin-left: -10px;\r\n    margin-right: -10px;\r\n    /*margin-left:-10px;*/\r\n  }\r\n}\r\n\r\n#loginbtn {}\r\n\r\n.btn-block {\r\n  background: #fed501;\r\n}\r\n\r\n@media all and (orientation:landscape) {\r\n  #branding {\r\n    width: 30% !important;\r\n  }\r\n}\r\n\r\na:active {\r\n  opacity: 1 !important;\r\n}\r\n\r\n#homedata {\r\n  top: 185px !important;\r\n}\r\n\r\n.scrollable-content > div#appContent {\r\n  background: #fff !important;\r\n  color: #333 !important;\r\n  min-height: 100%;\r\n  height: auto;\r\n  margin-top: 0px;\r\n  padding-bottom: 10px;\r\n}\r\n\r\n.scrollable-content > div#appContent h4,\r\n.scrollable-content > div#appContent p {\r\n  color: #333 !important;\r\n}\r\n\r\n.scrollable-content {\r\n  background-color: #fff;\r\n}\r\n\r\n.promptumenu_window ~ .scrollable {\r\n  display: none !important;\r\n}\r\n\r\ndiv.backButtonArrow div[aria-label=\"Login\"]:after {\r\n  content: \"Login\";\r\n  position: absolute !important;\r\n  top: 16px;\r\n  right: 6px;\r\n  font-size: 11px;\r\n}\r\n\r\ndiv.backButtonArrow div[aria-label=\"Logout\"]:after {\r\n  content: \"Logout\";\r\n  position: absolute !important;\r\n  top: 16px;\r\n  right: 0px;\r\n  font-size: 11px;\r\n}\r\n\r\ndiv.backButtonArrow div[aria-label=\"Back\"]:after {\r\n  content: \"Back\";\r\n  position: absolute !important;\r\n  top: 16px;\r\n  right: 7px;\r\n  font-size: 11px;\r\n}\r\n\r\ndiv.sideBarMenu div[aria-label=\"Sidebar Menu\"]:after {\r\n  content: \"Menu\";\r\n  position: absolute !important;\r\n  top: 16px;\r\n  right: 5px;\r\n  font-size: 11px;\r\n}\r\n\r\n.btn-group.pull-left.sideBarMenu,\r\n.btn-group.pull-right.backButtonArrow {\r\n  bottom: 6px !important;\r\n}\r\n\r\n.app {\r\n  background-size: 100% 100% !important;\r\n}\r\n\r\n.userProfile {\r\n  display: none !important;\r\n}\r\n\r\na.list-group-item.active,\r\na.list-group-item.active:focus,\r\na.list-group-item.active:hover {\r\n  border-color: #ddd !important;\r\n}.navbar-app, .sidebar, #mainSidebar { background : #415984 !important; } .navbar-brand, .navbar-absolute-top .btn-navbar { color : #ffffff !important; } .navbar-absolute-bottom .navbar-inverse { background : #415984 !important; } .navbar-absolute-bottom .navbar-inverse { color : #ffffff !important; } .app { background :  !important; } .campuseai-Info { color :  !important; } #mainSidebar .list-group-item { background : #ffffff !important; } #mainSidebar .list-group-item { color : #415984 !important; } #mainSidebar .appgroup { background : #ffffff !important; } #mainSidebar .appgroup { color : #415984 !important; } .btn-primary { background : #415984 !important; } .btn-primary { color : #ffffff !important; } .btn-primary { border-color : #415984 !important; } ",
  "authFunction": "function authFunction(uname, password, $http, $rootScope, success, error) {\r\n  alert (\"Tenant from Mycampus : \" + MyCampusApp.config.tenant);\r\n  alert (\"Tenant from Jstorage : \" + $.jStorage.get('tenant'));\r\n  $.jStorage.deleteKey('tenant');\r\n    var authSuccess = success;\r\n    var authError = error;\r\n    //Peoplesoft authentication\r\n    /*\r\n    var url = $rootScope.middlewareServerUrl + \"/services/ps/psholds\";\r\n    var data = {};\r\n    if (window.device) {\r\n        data = \"userId=\" + uname + \"&password=\" + password;\r\n    } else {\r\n        url = \"/websimulator/json?url=\" + url;\r\n        data = {\r\n            method: \"POST\",\r\n            body: \"userId=\" + uname + \"&password=\" + password\r\n        };\r\n    }\r\n    $.blockUI({\r\n        message: '<div style=\"margin: 2px; vertical-align: middle; display: inline-block\"><i class=\"icon-cog icon-spin icon-4x\"><\/i><h3>Authenticating<\/h3><\/div>'\r\n    });\r\n    alert(\"URL : \" + url);\r\n    $http.post(url, data).success(function (data, status, headers, config) {\r\n        success(data);\r\n        $.unblockUI();\r\n    }).error(function (data, status, headers, config) {\r\n        error(data);\r\n        $.unblockUI();\r\n    });\r\n*/\r\n    //Banner Authentication with CAS\r\n\r\n    /*var url = \"https://my.curry.edu/cas/v1/tickets/\";\r\n    var data = {};\r\n    if (window.device) {\r\n        data = \"username=\" + uname + \"&password=\" + password;\r\n    } else {\r\n        url = \"/websimulator/text?url=\" + url;\r\n        data = {\r\n            method: \"POST\",\r\n            body: \"username=\" + uname + \"&password=\" + password\r\n        };\r\n    }\r\n\r\n    $rootScope.generateST = function (tgt, service, callback) {\r\n        var data = {};\r\n        if (window.device) {\r\n            data = \"service=\" + service;\r\n        } else {\r\n            url = \"/websimulator/text?url=\" + \"https://my.curry.edu/cas/v1/tickets/\";\r\n            data = {\r\n                method: \"POST\",\r\n                body: \"service=\" + service\r\n            };\r\n        }\r\n\r\n        $.ajax({\r\n            url: url + tgt,\r\n            type: \"POST\",\r\n            async: true,\r\n            data: data,\r\n            error: function (response) {\r\n                alert(\"Error : \" + response);\r\n\r\n            },\r\n            success: function (data) {\r\n                //alert(\"Success : \" + data);\r\n                callback(data);\r\n            }\r\n        });\r\n\r\n    };\r\n\r\n    $.blockUI({\r\n        message: '<div style=\"margin: 2px; vertical-align: middle; display: inline-block\"><i class=\"icon-cog icon-spin icon-4x\"><\/i><h3>Authenticating<\/h3><\/div>'\r\n    });\r\n    $.ajax({\r\n        url: url,\r\n        type: \"POST\",\r\n        async: true,\r\n        data: data,\r\n        error: function (response) {\r\n            $.unblockUI();\r\n        },\r\n        success: function (data) {\r\n            //alert(\"Success : \" + data);\r\n            $.unblockUI();\r\n\r\n        },\r\n        complete: function (response, textStatus) {\r\n            //alert(\"complete : \" + response + \"  text status : \" + textStatus);\r\n            $.unblockUI();\r\n            if (textStatus == \"success\" && response.status == 201) {\r\n                var str = response.getResponseHeader('Location');\r\n                var tgtTicket = str.substr(str.lastIndexOf('/') + 1);\r\n                //generateST(tgtTicket);\r\n                success({\r\n                    \"ticket\": tgtTicket\r\n                });\r\n                $rootScope.$apply(function () {\r\n\r\n                    $rootScope.setRoute(\"/home\");\r\n\r\n                });\r\n\r\n\r\n            } else {\r\n                success({\r\n                    \"error\": \"Oops! Cannot log you in. Please check your login details.\"\r\n                });\r\n            }\r\n        }\r\n\r\n    });*/\r\n\r\n\r\n    //Banner Authentication with LDAP - middlware auth\r\n\r\n    var url = $rootScope.middlewareServerUrl + \"/bannermobile2/services/authenticate/login\";\r\n    var data = {};\r\n    if (window.device) {\r\n        data = \"username=\" + uname + \"&password=\" + password;\r\n    } else {\r\n        url = \"/websimulator/json?url=\" + url;\r\n        data = {\r\n            method: \"POST\",\r\n            body: \"username=\" + uname + \"&password=\" + password\r\n        };\r\n    }\r\n    var authUrl = url;\r\n    var authData = data;\r\n    $rootScope.generateST = function(tgt, service, callback) {\r\n        //Bypassing the ST as there is no service ticket required here..\r\n        callback(tgt);\r\n    };\r\n\r\n    $rootScope.postAPI = function(endpoint, postdata, callback) {\r\n        $.blockUI();\r\n        $rootScope.generateST($rootScope.ticket, endpoint, function(st) {\r\n            var serviceurl = endpoint + \"?ticket=\" + st;\r\n            var url = \"\";\r\n            var proxyMethod = \"POST\";\r\n            var proxyData = postdata;\r\n            if (window.device) {\r\n                url = serviceurl;\r\n            } else {\r\n                url = \"/websimulator/json?url=\" + serviceurl;\r\n                proxyMethod = \"POST\";\r\n                proxyData = {\r\n                    method: \"POST\",\r\n                    body: postdata\r\n                }\r\n            }\r\n            $http({\r\n                method: proxyMethod,\r\n                url: url,\r\n                data: proxyData\r\n            }).\r\n            success(function(data, status, headers, config) {\r\n                $.unblockUI();\r\n                callback(data, status, headers, config);\r\n            }).\r\n            error(function(data, status, headers, config) {\r\n                $.unblockUI();\r\n                //alert(\"Error in service call : \" + data + \" Status : \" + status);\r\n                if (status == 403) { //Ticket expired.. need to relogin\r\n                    $http.post(authUrl, authData).success(function(data, status, headers, config) {\r\n                        authSuccess(data);\r\n                        $rootScope.getAPI(endpoint, callback);\r\n                    }).error(function(data, status, headers, config) {\r\n                        authError(data);\r\n\r\n                    });\r\n                }\r\n\r\n            });\r\n\r\n        });\r\n\r\n    };\r\n\r\n    $rootScope.getAPI = function(endpoint, callback) {\r\n        $.blockUI();\r\n        $rootScope.generateST($rootScope.ticket, endpoint, function(st) {\r\n            var serviceurl = endpoint + \"?ticket=\" + st;\r\n            var url = \"\";\r\n            var proxyMethod = \"GET\";\r\n            var proxyData = {};\r\n            if (window.device) {\r\n                url = serviceurl;\r\n            } else {\r\n                url = \"/websimulator/json?url=\" + encodeURIComponent(serviceurl);\r\n                proxyMethod = \"POST\";\r\n                proxyData = {\r\n                    method: \"GET\"\r\n                }\r\n            }\r\n            $http({\r\n                method: proxyMethod,\r\n                url: url,\r\n                data: proxyData\r\n            }).\r\n            success(function(data, status, headers, config) {\r\n                $.unblockUI();\r\n                callback(data, status, headers, config);\r\n            }).\r\n            error(function(data, status, headers, config) {\r\n                $.unblockUI();\r\n                //alert(\"Error in service call : \" + data + \" Status : \" + status);\r\n                if (status == 403) { //Ticket expired.. need to relogin\r\n                    $http.post(authUrl, authData).success(function(data, status, headers, config) {\r\n                        authSuccess(data);\r\n                        $rootScope.getAPI(endpoint, callback);\r\n                    }).error(function(data, status, headers, config) {\r\n                        authError(data);\r\n\r\n                    });\r\n                }\r\n\r\n            });\r\n\r\n        });\r\n\r\n    };\r\n\r\n\r\n\r\n\r\n    $.blockUI({\r\n        message: '<div style=\"margin: 2px; vertical-align: middle; display: inline-block\"><i class=\"icon-cog icon-spin icon-4x\"><\/i><h3>Authenticating<\/h3><\/div>'\r\n    });\r\n\r\n    $http.post(url, data).success(function(data, status, headers, config) {\r\n        success(data);\r\n        $.unblockUI();\r\n    }).error(function(data, status, headers, config) {\r\n        error(data);\r\n        $.unblockUI();\r\n    });\r\n\r\n}",
  "forgotPasswordUrl": null,
  "reportissueEmail": null,
  "iconWidth": 70,
  "apps": 
  [
    {
      "id": 66595,
      "name": "Events363",
      "displayname": "Events",
      "logo": "IND1308/Events363.png",
      "logourl": "IND1308/Events363.png",
      "description": "Events",
      "appFeatureType": "Public",
      "roles": null,
      "showInDock": false,
      "showInHome": true,
      "networkrequired": true,
      "analytics": true,
      "pages": 
      [
        {
          "pageid": "Events363",
          "pageTemplate": "<div><\/div>",
          "pageprocessor": "function pageprocessorEvents363(pagedef, $scope, $routeParams, $compile, $http, $rootScope, $sce, $window, $location) {\r\n  if (window.device) {\r\n    $.blockUI();\r\n  }\r\n  var iabRef = window.open(pagedef.url, \"_blank\", \"location=no,hidden=yes,enableViewportScale=yes,clearcache=yes\");\r\n  var hideBlockUi = function() {\r\n    $.unblockUI();\r\n    iabRef.show();\r\n  };\r\n  var iabClose = function(data) {\r\n    $.unblockUI();\r\n    iabRef.removeEventListener(\"exit\", iabClose);\r\n    window.location.href = \"index.html#home\";\r\n  };\r\n  iabRef.addEventListener(\"exit\", iabClose);\r\n  var loadStop = function(data) {\r\n    hideBlockUi();\r\n    iabRef.removeEventListener(\"loadstop\", loadStop);\r\n  };\r\n  iabRef.addEventListener(\"loadstop\", loadStop);\r\n}",
          "url": "http://www.lbhc.edu/lookingglass/events.xml"
        }
      ]
    },
    {
      "id": 58468,
      "name": "News",
      "displayname": "News",
      "logo": "IND1308/News.png",
      "logourl": "IND1308/News.png",
      "description": "Campus News Feeds test",
      "appFeatureType": "Public",
      "roles": "public",
      "showInDock": false,
      "showInHome": true,
      "networkrequired": true,
      "analytics": true,
      "pages": 
      [
        {
          "pageid": "NewsDetails",
          "pageTemplate": "<div><\/div>",
          "datatemplate": "<style>\r\n    .app {\r\n    background: #fff !important;\r\n  }\r\n  \r\n  #branding {\r\n    display: none;\r\n  }\r\n  \r\n  #content a {\r\n    color: #256fca;\r\n  }\r\n  \r\n  #content img {\r\n    width: 98% !important;\r\n    height: auto !important;\r\n    ]\r\n<\/style>\r\n<div class=\"jumbotron\" style=\"background:#fff;\">\r\n  <h4 class=\"page-header\" style=\"color:#164E79; border-color:#000;\">{{feed.title}}<\/h4>\r\n  <p style=\"color:#000\" id=\"content\" class=\"small\" ng-bind-html=\"trustHtml(feed.contentSnippet)\"><\/p>\r\n  <p class=\"small\" style=\"color:#000;\">Published On: <span class=\"small\" ng-bind=\"convertToDate(feed.pubDate) | date:'EEE, MMM dd, y h:mm a'\" class=\"small\" style=\"color:#000\"><\/span><\/p>\r\n\r\n  <a class=\"btn btn-primary btn-block\" ng-click=\"openurl();\">View Website<\/a>\r\n<\/div>",
          "pageprocessor": "function pageprocessorNewsDetails(pagedef, $scope, $routeParams, $compile, $http, $rootScope, $sce, $window, $location) {\r\n  $scope.feed = $rootScope.feeds[$routeParams.index];\r\n  $scope.openurl = function() {\r\n    window.open($scope.feed.link, \"_blank\", \"location=yes,enableViewportScale=yes\");\r\n  };\r\n  var template = pagedef.datatemplate;\r\n  $scope.trustHtml = function(data) {\r\n    return $sce.trustAsHtml(data);\r\n  }\r\n  var data1 = $compile($(template))($scope);\r\n  $(\"#appContent\").append(data1);\r\n\r\n  setTimeout(function() {\r\n    $(\"#content a\").on(\"click\", function(eve) {\r\n\r\n      var link = $(this).attr('href');\r\n      if (link.indexOf(\"mailto:\") > -1 || link.indexOf(\"tel:\") > -1) {} else {\r\n        eve.preventDefault();\r\n\r\n        window.open(link, \"_blank\", \"location=yes,enableViewportScale=yes\");\r\n      }\r\n    });\r\n  }, 1000);\r\n\r\n  $scope.convertToDate = function(stringDate) {\r\n    var dateOut = new Date(stringDate);\r\n    dateOut.setDate(dateOut.getDate());\r\n    return dateOut;\r\n  };\r\n\r\n}"
        },
        {
          "pageid": "News",
          "pageTemplate": "<div><\/div>",
          "url": "http://billingsgazette.com/search/?f=rss&t=article&c=news/local*&l=25&s=start_time&sd=desc",
          "pageprocessor": "function pageprocessorNews(pagedef, $scope, $routeParams, $compile, $http, $rootScope, $sce, $window, $location) {\r\n\r\n  var data1 = $compile($(pagedef.datatemplate))($scope);\r\n  $(\"#appContent\").append(data1);\r\n  $.blockUI();\r\n  var rssreaderUrl = \"https://kryptosda.kryptosmobile.com/kryptosds/rss/rssreader\";\r\n  var param = {\r\n    \"url\": pagedef.url\r\n  };\r\n  $http.post(rssreaderUrl, param, '').success(function(data, status, headers, config) {\r\n    $scope.feeds = data.feed.entries;\r\n    $rootScope.feeds = data.feed.entries;\r\n    $.unblockUI();\r\n  }).error(function(error, status, header, config) {\r\n    //alert(JSON.stringify(error));\r\n    $.unblockUI();\r\n  });\r\n\r\n  /*$.blockUI();\r\n  var feed = new google.feeds.Feed(pagedef.url);\r\n  feed.setNumEntries(-1);\r\n  feed.setResultFormat(google.feeds.Feed.JSON);\r\n  feed.load(function(result) {\r\n    if (!result.error) {\r\n\r\n      $scope.feeds = result.feed.entries;\r\n      $rootScope.feeds = result.feed.entries;\r\n      var data = '<div class=\"row-fluid\"><\/div>';\r\n      data = $(data)\r\n        .append($(pagedef.datatemplate));\r\n      var data1 = $compile($(data))($scope);\r\n      $('#appContent')\r\n        .append(data1);\r\n      $scope.$apply();\r\n      $.unblockUI();\r\n    }\r\n  });*/\r\n  $scope.convertToDate = function(stringDate) {\r\n    var dateOut = new Date(stringDate);\r\n    dateOut.setDate(dateOut.getDate());\r\n    return dateOut;\r\n  };\r\n}",
          "datatemplate": "<style>\r\n  #branding {\r\n    display: none;\r\n  }\r\n<\/style>\r\n<div class=\"list-group\"><a href=\"#app/News/NewsDetails?index={{$index}}\" class=\"list-group-item\" ng-repeat=\"feed in feeds | filter:filterText\"><h4 style=\"color:#164E79 !important;font-weight:bold;\">{{feed.title}}<\/h4><!--<p class=\"text-left\" style=\"color:#000;\">{{feed.contentSnippet}}<\/p>--><span ng-bind=\"convertToDate(feed.pubDate) | date:'EEE, MMM dd, y h:mm a'\"><\/span><\/a><\/div>"
        }
      ]
    },
    {
      "id": 58459,
      "name": "Library130",
      "displayname": "Library",
      "logo": "IND1308/Library130.png",
      "logourl": "IND1308/Library130.png",
      "description": "Library",
      "appFeatureType": "Public",
      "roles": null,
      "showInDock": false,
      "showInHome": true,
      "networkrequired": true,
      "analytics": true,
      "pages": 
      [
        {
          "pageid": "Library130",
          "pageTemplate": "<div><\/div>",
          "pageprocessor": "function pageprocessorLibrary130(pagedef, $scope, $routeParams, $compile, $http, $rootScope, $sce, $window, $location) {\r\n  if (window.device) {\r\n    $.blockUI();\r\n  }\r\n  var iabRef = window.open(pagedef.url, \"_blank\", \"location=no,hidden=yes,enableViewportScale=yes,clearcache=yes\");\r\n  var hideBlockUi = function() {\r\n    $.unblockUI();\r\n    iabRef.show();\r\n  };\r\n  var iabClose = function(data) {\r\n    $.unblockUI();\r\n    iabRef.removeEventListener(\"exit\", iabClose);\r\n    window.location.href = \"index.html#home\";\r\n  };\r\n  iabRef.addEventListener(\"exit\", iabClose);\r\n  var loadStop = function(data) {\r\n    hideBlockUi();\r\n    iabRef.removeEventListener(\"loadstop\", loadStop);\r\n  };\r\n  iabRef.addEventListener(\"loadstop\", loadStop);\r\n}",
          "url": "http://lib.lbhc.edu"
        }
      ]
    },
    {
      "id": 62188,
      "name": "Directory",
      "displayname": "Directory",
      "logo": "IND1308/Directory.png",
      "logourl": "IND1308/Directory.png",
      "description": "Directory",
      "appFeatureType": "Public",
      "roles": "public",
      "showInDock": false,
      "showInHome": true,
      "networkrequired": true,
      "analytics": true,
      "pages": 
      [
        {
          "pageid": "Directory",
          "pageTemplate": "<div><\/div>",
          "searchfields": "firstNAME,LastNAME",
          "datatemplate": "<style>\r\n  h4 {\r\n    font-size: 13.5px !important;\r\n  }\r\n<\/style>\r\n<div>\r\n  <div class=\"panel panel-primary\" style=\"border:none;\">\r\n    <div class=\"panel-heading\" style=\"background: transparent; border-color: rgb(0, 0, 0);\">\r\n      <form id=\"srch\" class=\"form-horizontal\">\r\n        <div class=\"input-group\">\r\n          <input id=\"Directorytxt\" type=\"text\" ng-model=\"Directoryval\" class=\"form-control\" placeholder=\"Search by FirstName, LastName\" />\r\n          <span class=\"input-group-btn\">\r\n                    <button ng-click=\"search()\" class=\"btn btn-primary\" type=\"button\" style=\"background:#000\"><span class=\"fa fa-search\"><\/span>\r\n          <\/button>\r\n          <\/span>\r\n        <\/div>\r\n      <\/form>\r\n    <\/div>\r\n    <div class=\"panel-body\" style=\"padding:0px;background:transparent;\">\r\n      <div class=\"list-group\">\r\n        <a href=\"#app/Directory/DirectoryDetails?index={{$index}}\" class=\"list-group-item\" ng-repeat=\"entry in DirectoryResult\">\r\n          <strong>{{entry.firstNAME}} {{entry.LastNAME}}<\/strong>\r\n          <i class=\"fa fa-chevron-circle-right pull-right fa-2x\"><\/i>\r\n          <br/>\r\n          <p class=\"text-left\">{{entry.title}}<\/p>\r\n        <\/a>\r\n      <\/div>\r\n      <div class=\"alert alert-info\" style=\"margin:20%;\" ng-show=\"!resultfound\">No Results found. Please try again.<\/div>\r\n    <\/div>\r\n  <\/div>\r\n<\/div>",
          "pageprocessor": "function pageprocessorDirectory(pagedef, $scope, $routeParams, $compile, $http, $rootScope, $sce, $window, $location) {\r\n  $scope.resultfound = true;\r\n  var data1 = $compile($(pagedef.datatemplate))($scope);\r\n  $(\"#appContent\").append(data1);\r\n  $('#srch').on('submit', function(event) {\r\n    event.preventDefault();\r\n    $scope.search();\r\n    $scope.$digest();\r\n    $(\"#srchbtn\").focus();\r\n    return false;\r\n  });\r\n\r\n\r\n$rootScope.back=function()\r\n  {\r\n    try{\r\n    $('#Directorytxt').val('');\r\n    $rootScope.Directoryval='';\r\n   $rootScope.DirectoryResult='';\r\n    }catch(e){}\r\n    window.history.back();\r\n\r\n  }\r\n  \r\n  $scope.fetched = false;\r\n  \r\n  $scope.filterresult = function() {\r\n    var searchTxt = $(\"#Directorytxt\").val();\r\n    $rootScope.Directoryval = searchTxt||'';\r\n    var results = [];\r\n    var patt = new RegExp(searchTxt, \"i\");\r\n    var filterParams = pagedef.searchfields.split(\",\");\r\n    $.each($scope.DirectoryList.Row, function(index, val) {\r\n      var found = false;\r\n      for (var i = 0; i < filterParams.length; i++) {\r\n        if (val[\"\" + filterParams[i] + \"\"].match(patt)) {\r\n          found = true;\r\n          break;\r\n        }\r\n      }\r\n      if (found) {\r\n        results.push(val);\r\n      }\r\n    });\r\n    $rootScope.DirectoryResult = results;\r\n    if (results.length > 0) {\r\n      $scope.resultfound = true;\r\n    } else {\r\n      $scope.resultfound = false;\r\n    }\r\n  };\r\n  $scope.search = function() {\r\n    if ($scope.fetched == false) {\r\n      $.blockUI();\r\n      var url = pagedef.url;\r\n      if (window.device) {} else {\r\n        url = \"/websimulator/xml?url=\" + pagedef.url;\r\n      }\r\n      var xhr = $.ajax({\r\n        url: url,\r\n        dataType: \"xml\",\r\n        async: true,\r\n        data: {},\r\n        success: function(resp) {\r\n          try {\r\n            var results = $.xml2json(resp);\r\n            $scope.fetched = true;\r\n            $scope.DirectoryList = results;\r\n            $scope.filterresult();\r\n            $scope.$apply();\r\n            $.unblockUI();\r\n          } catch (E) {\r\n            // alert(\"Exception : \" + E);\r\n          }\r\n        },\r\n        error: function(e) {\r\n          alert(\"Error : \" + JSON.stringify(e));\r\n          $.unblockUI();\r\n          apprise(\"Error occured. Please try again later.\", {\r\n            \"verify\": false,\r\n            \"textYes\": \"Ok\"\r\n          }, function(r) {\r\n            $window.history.back();\r\n          });\r\n        }\r\n      });\r\n    } else {\r\n      $scope.filterresult();\r\n    }\r\n  }\r\n  if (!$rootScope.DirectoryResult) {\r\n    $scope.search();\r\n  }\r\n}",
          "url": "http://www.lbhc.edu/lookingglass/directory.xml"
        },
        {
          "pageid": "DirectoryDetails",
          "pageTemplate": "<div><\/div>",
          "datatemplate": "<div>\r\n  <div class=\"panel panel-primary\" style=\"border-color:#000\">\r\n    <div class=\"panel-heading\" style=\"background: none repeat scroll 0% 0% #415984; border-color: rgb(0, 0, 0);font-size: 110%;\">{{DirectoryDetails.firstNAME}} {{DirectoryDetails.LastNAME}}\r\n    <\/div>\r\n    <div class=\"panel-body\">\r\n      <div class=\"list-group\" style=\"font-size: 110%;\">\r\n        <a class=\"list-group-item\">\r\n          <h4 class=\"list-group-item-heading small\"><strong>Title:<\/strong> {{DirectoryDetails.title}}\r\n                    <\/h4>\r\n        <\/a>\r\n        <a class=\"list-group-item\" href=\"mailto:{{DirectoryDetails.email}}\">\r\n          <h4 class=\"list-group-item-heading small\"><strong>Email:<\/strong> {{DirectoryDetails.email}}\r\n                    <i class=\"pull-right fa fa-chevron-right\"><\/i><\/h4>\r\n        <\/a>\r\n        <a class=\"list-group-item\" href=\"tel:{{DirectoryDetails.officePHONE}}\">\r\n          <h4 class=\"list-group-item-heading small\"><strong>Phone:<\/strong> {{DirectoryDetails.officePHONE}}\r\n                    <i class=\"pull-right fa fa-chevron-right\"><\/i><\/h4>\r\n        <\/a>\r\n        <div class=\"list-group-item\">\r\n          <h4 class=\"list-group-item-heading small\"><strong>Department:<\/strong> {{DirectoryDetails.department}}\r\n                    <\/h4>\r\n        <\/div>\r\n        <div class=\"list-group-item\">\r\n          <h4 class=\"list-group-item-heading small\"><strong>Office:<\/strong> {{DirectoryDetails.building}}\r\n                    <\/h4>\r\n        <\/div>\r\n      <\/div>\r\n    <\/div>\r\n  <\/div>\r\n<\/div>",
          "pageprocessor": "function pageprocessorDirectoryDetails(pagedef, $scope, $routeParams, $compile, $http, $rootScope, $sce, $window, $location) {$scope.DirectoryDetails =  $rootScope.DirectoryResult[$routeParams.index];var template = pagedef.datatemplate;var data1 = $compile($(template))($scope);$(\"#appContent\").append(data1);}"
        }
      ]
    },
    {
      "id": 62191,
      "name": "Courses194",
      "displayname": "Courses",
      "logo": "IND1308/Courses194.png",
      "logourl": "IND1308/Courses194.png",
      "description": "Courses",
      "appFeatureType": "Public",
      "roles": null,
      "showInDock": false,
      "showInHome": true,
      "networkrequired": true,
      "analytics": true,
      "pages": 
      [
        {
          "pageid": "Courses194",
          "pageTemplate": "<div><\/div>",
          "pageprocessor": "function pageprocessorCourses194(pagedef, $scope, $routeParams, $compile, $http, $rootScope, $sce, $window, $location) {\r\n  $scope.resultfound = true;\r\n  var data1 = $compile($(pagedef.datatemplate))($scope);\r\n  $(\"#appContent\").append(data1);\r\n\r\n\r\n  $rootScope.back=function()\r\n  {\r\n    try{\r\n    $('#Courses194txt').val('');\r\n    $rootScope.Courses194val='';\r\n   $rootScope.Courses194Result='';\r\n    }catch(e){}\r\n    window.history.back();\r\n\r\n  }\r\n\r\n\r\n  $scope.fetched = false;\r\n  $scope.filterresult = function() {\r\n    var searchTxt = $(\"#Courses194txt\").val();\r\n    $rootScope.Courses194val = searchTxt;\r\n    var results = [];\r\n    var patt = new RegExp(searchTxt, \"i\");\r\n    var filterParams = pagedef.searchfields.split(\",\");\r\n    $.each($scope.Courses194List.Row, function(index, val) {\r\n      var found = false;\r\n      for (var i = 0; i < filterParams.length; i++) {\r\n        if (val[\"\" + filterParams[i] + \"\"].match(patt)) {\r\n          found = true;\r\n          break;\r\n        }\r\n      }\r\n      if (found) {\r\n        results.push(val);\r\n      }\r\n    });\r\n    $rootScope.Courses194Result = results;\r\n    if (results.length > 0) {\r\n      $scope.resultfound = true;\r\n    } else {\r\n      $scope.resultfound = false;\r\n    }\r\n  };\r\n  $scope.search = function() {\r\n    if ($scope.fetched == false) {\r\n      $.blockUI();\r\n      var url = pagedef.url;\r\n      if (window.device) {} else {\r\n        url = \"/websimulator/xml?url=\" + pagedef.url;\r\n      }\r\n      var xhr = $.ajax({\r\n        url: url,\r\n        dataType: \"text\",\r\n        async: true,\r\n        data: {},\r\n        success: function(resp) {\r\n          //alert(JSON.stringify(resp));\r\n          typeof(resp);\r\n          try {\r\n            var results = $.xml2json(resp);\r\n            //alert(JSON.stringify(results));\r\n            $scope.fetched = true;\r\n            $scope.Courses194List = results;\r\n            $scope.filterresult();\r\n            $scope.$apply();\r\n            $.unblockUI();\r\n          } catch (E) {\r\n            alert(\"Exception : \" + E);\r\n          }\r\n        },\r\n        error: function(e) {\r\n          alert(\"Error : \" + e);\r\n          $.unblockUI();\r\n          apprise(\"Error occured. Please try again later.\", {\r\n            \"verify\": false,\r\n            \"textYes\": \"Ok\"\r\n          }, function(r) {\r\n            $window.history.back();\r\n          });\r\n        }\r\n      });\r\n    } else {\r\n      $scope.filterresult();\r\n    }\r\n  }\r\n\r\n  if (!$rootScope.Courses194Result) {\r\n    $scope.search();\r\n  }\r\n  \r\n}",
          "url": "http://www.lbhc.edu/lookingglass/courses.xml",
          "searchfields": "Course,Course_Name",
          "datatemplate": "<div>\r\n  <div class=\"panel panel-primary\" style=\"border:none;\">\r\n    <div class=\"panel-heading\" style=\"background: transparent; border-color: rgb(0, 0, 0);\">\r\n      <form id=\"srch\" class=\"form-horizontal\">\r\n        <div class=\"input-group container\">\r\n          <input id=\"Courses194txt\" type=\"text\" ng-model=\"Courses194val\" class=\"form-control\" placeholder=\"Search by Course, Course Name\" /><span class=\"input-group-btn\"><button ng-click=\"search()\" class=\"btn btn-primary\" type=\"button\"><span class=\"fa fa-search\"><\/span><\/button>\r\n          <\/span>\r\n        <\/div>\r\n      <\/form>\r\n    <\/div>\r\n    <div class=\"panel-body\" style=\"padding:0px;background:transparent;\">\r\n      <div class=\"list-group\"><a href=\"#app/Courses194/Courses194Details?index={{$index}}\" class=\"list-group-item\" ng-repeat=\"entry in Courses194Result\"><strong>{{entry.Course}}, {{entry.Course_Name}}<\/strong>\r\n        <i class=\"fa fa-chevron-circle-right pull-right fa-2x\"><\/i>\r\n          <br><p class=\"text-left\">{{entry.Time}}<\/p><\/a><\/div>\r\n      <div class=\"alert alert-info\" style=\"margin:20%;\" ng-show=\"!resultfound\">No Results found.!<\/div>\r\n    <\/div>\r\n  <\/div>\r\n<\/div>"
        },
        {
          "pageid": "Courses194Details",
          "pageTemplate": "<div><\/div>",
          "pageprocessor": "function pageprocessorCourses194Details(pagedef, $scope, $routeParams, $compile, $http, $rootScope, $sce, $window, $location) {$scope.Courses194Details =  $rootScope.Courses194Result[$routeParams.index];var template = pagedef.datatemplate;var data1 = $compile($(template))($scope);$(\"#appContent\").append(data1);}",
          "datatemplate": "<div>\r\n  <div class=\"panel panel-primary\" style=\"border-color:#000\">\r\n    <div class=\"panel-heading\" style=\"background: none repeat scroll 0% 0% #415984; border-color: rgb(0, 0, 0);font-size: 110%;\"><span>{{Courses194Details.Course}} - {{Courses194Details.Course_Name}}<\/span><\/div>\r\n    <div class=\"panel-body\">\r\n      <div class=\"list-group\" style=\"font-size: 110%;\">\r\n        <a class=\"list-group-item\">\r\n          <h4 class=\"list-group-item-heading small\"><strong>Course No.:<\/strong> {{Courses194Details.Course}}<\/h4><\/a>\r\n        <a class=\"list-group-item\">\r\n          <h4 class=\"list-group-item-heading small\"><strong>Course name:<\/strong> {{Courses194Details.Course_Name}}<\/h4><\/a>\r\n\r\n        <a class=\"list-group-item\">\r\n          <h4 class=\"list-group-item-heading small\"><strong>Days:<\/strong> {{Courses194Details.Days}}<\/h4>\r\n        <\/a>\r\n        <a class=\"list-group-item\">\r\n          <h4 class=\"list-group-item-heading small\"><strong>Time:<\/strong> {{Courses194Details.Time}}<\/h4><\/a>\r\n        <a class=\"list-group-item\">\r\n          <h4 class=\"list-group-item-heading small\"><strong>Room:<\/strong> {{Courses194Details.Room}}<\/h4><\/a>\r\n        <a class=\"list-group-item\">\r\n          <h4 class=\"list-group-item-heading small\"><strong>Instructor:<\/strong> {{Courses194Details.Instructor}}<\/h4><\/a>\r\n        <a class=\"list-group-item\">\r\n          <h4 class=\"list-group-item-heading small\"><strong>Credits:<\/strong> {{Courses194Details.Cr}}<\/h4><\/a>\r\n\r\n      <\/div>\r\n    <\/div>\r\n  <\/div>"
        }
      ]
    },
    {
      "id": 58456,
      "name": "Facebook323",
      "displayname": "Facebook",
      "logo": "IND1308/Facebook323.png",
      "logourl": "IND1308/Facebook323.png",
      "description": "Facebook",
      "appFeatureType": "Public",
      "roles": null,
      "showInDock": false,
      "showInHome": true,
      "networkrequired": true,
      "analytics": true,
      "pages": 
      [
        {
          "pageid": "Facebook323",
          "pageTemplate": "<div><\/div>",
          "pageprocessor": "function pageprocessorFacebook323(pagedef, $scope, $routeParams, $compile, $http, $rootScope, $sce, $window, $location) {\r\n  if (window.device) {\r\n    $.blockUI();\r\n  }\r\n  var iabRef = window.open(pagedef.url, \"_blank\", \"location=no,hidden=yes,enableViewportScale=yes,clearcache=yes\");\r\n  var hideBlockUi = function() {\r\n    $.unblockUI();\r\n    iabRef.show();\r\n  };\r\n  var iabClose = function(data) {\r\n    $.unblockUI();\r\n    iabRef.removeEventListener(\"exit\", iabClose);\r\n    window.location.href = \"index.html#home\";\r\n  };\r\n  iabRef.addEventListener(\"exit\", iabClose);\r\n  var loadStop = function(data) {\r\n    hideBlockUi();\r\n    iabRef.removeEventListener(\"loadstop\", loadStop);\r\n  };\r\n  iabRef.addEventListener(\"loadstop\", loadStop);\r\n}",
          "url": "https://www.facebook.com/Littlebighorncollege/"
        }
      ]
    },
    {
      "id": 58462,
      "name": "Emergency",
      "displayname": "Emergency",
      "logo": "IND1308/Emergency.png",
      "logourl": "IND1308/Emergency.png",
      "description": "Emergency Contact",
      "appFeatureType": "Public",
      "roles": "public",
      "showInDock": false,
      "showInHome": true,
      "networkrequired": true,
      "analytics": true,
      "pages": 
      [
        {
          "pageid": "Emergency",
          "pageTemplate": "<div class=\"well\"  style=\"background:transparent;padding:10px;border:none;\">     <div class=\"list-group\">         <a class=\"list-group-item active panel-title\" style=\"background:#415984 !important;color:#fff;font-weight:bold\">Phone Numbers<\/a>         <a href=\"tel:{{contact.number}}\" class=\"list-group-item\" ng-repeat=\"contact in contacts.Contacts \">             <b>{{contact.name}} <\/b>             <i class=\"fa fa-chevron-circle-right pull-right fa-2x\"><\/i>             <br/>             <i class=\"fa fa-phone\"><\/i>&nbsp;&nbsp;{{contact.number}}         <\/a>     <\/div> <\/div>",
          "pageprocessor": "function pageprocessorEmergency(pagedef, $scope, $routeParams, $compile, $http, $rootScope, $sce, $window, $location) {\r\n    $scope.contacts = $.parseJSON(pagedef.contactdetails);\r\n    var data1 = $compile($(pagedef.pageTemplate))($scope);\r\n    $(\"#appContent\").append(data1);\r\n    $scope.$apply();\r\n}",
          "contactdetails": "{\r\n  \"Contacts\": [{\r\n    \"name\": \"LBHC Administration\",\r\n    \"number\": \"406-638-3104\"\r\n  }]\r\n}"
        }
      ]
    }
  ],
  "pages": 
  [
  ]
}